{
  "type": "service_account",
  "project_id": "mykineto",
  "private_key_id": "d1b0bddc2b31832b97eb4b2cd5945cf593d11eff",
  "private_key": "-----BEGIN PRIVATE KEY-----\nMIIEvwIBADANBgkqhkiG9w0BAQEFAASCBKkwggSlAgEAAoIBAQC9955POxPfrIOl\nFErlH8ndTtf+TTCzegR08YY+ospAyBLn/N9JGy7VCNlkRxFkUQAaluQREMVtSXK4\nCdI+KI/DNCJMFz7MrrcAYPl/NWFjLP09yax5Z/RhWZ/6j/vd0R+chHGrvm0xapca\nCFLqaDinRBFu+6pcWFJiJdcbMC0rF+yrQPAT0YoI9ToQkqPocyxnRmLdrESa6CZ9\nEBd/ag3zMrUIBwsHVr+yUlc/yVCaTz7M56X8MhClwnzQb5pGL2UExYZuJ8fbH77+\nDLIYT44hXuFB9gOi/B+e/R1e6+AFrPH4Ne8bKztpKaNDryLiuds+wlMgkG86pD3C\nbtbDFZ0xAgMBAAECggEAAdtBDKSlS4/hkp5pQwL81GAz43Ipi0p4wrQPMahIr9bP\nG2QBrykmm7OjWYiwHUK4b81I7ETSWhos3P3j4Q8nfjY0zgx8DncYMAPMMmU3fVcX\nZtHKvd4kka/U//dlenZaIv76GnShCtNmgUB1/3peSd4UEC/bgaO/eXWY70TsJXrc\nWVZZldTyhSCYwN10z2iVgIlZ/+alIIhtVj/3njFiXJOnD6V6g9YUzur+DXrRCGeb\nbJZxE8wOHy4OHLEDMTFwIrZCrDerQPpaXrUoghCmOhxk5rqOeaTHMY2x5wBbtjD2\nuOhwCGTTVwgeUZv7rAIJFVkdfs+isoi9fOqnAtsGIQKBgQDkmfe0bP42OgVe7LyR\nOKAZzly+w9tu1Q8HSwAgFQdShFexj8rZu86EELYRwxAR+MquTLtUQrrEesXnEe/E\nM+AJbPtvC90NVMaR/n1z/glfiJqpkr+45/J50WF07ovjvQ8Ec69YzxK0FIDEJJhr\nNPp8YssZMpYHJIRYEsWPdqYkIQKBgQDUvENQMbEtIuyvnynJkt9sqf0lwErn1q8t\n4lfjKofsaIJplM8AfUhfC8dIOKuMrRBBx5cUwg1C+HUYl0hq9jF3yFX/EgNkQ2yJ\noc+eqd4PeaKxHhV1hkyrWfx3NgSTiNhmbn4gfWMJSKzJ3Z7L8phG+mJhp8bKXhZq\nTDEmMwZXEQKBgQCQuPDaps3hYqYXzGQsw96Ht997Xd9DsVrMUS0JIob6NJKX9OKF\nKaK6dSHu6MD5v7oA0s8drwkybk9v1Cko23aQQRCE4svVLsBvmN+vWTpx4reXdzIt\nS5p0iJvcPVEOopgpR1vRK3c5zmkew9RCus2BhcHyd9YHO5UVdPzhsEnKQQKBgQCj\nAZKumzUAufcUZugVHaZ3VBW2XI7I8LaQeRQQ6+D04+uxzSWEYXsX4SWVEF9azq1b\nSf1ZGYwh2dGXwyvpUbX765UBeqMAq606FLPLBqwxvWlNQBj/UaXj0nLiQZDmH4B5\nlIaujIVbcsV7dIaeDchi8q551546KDgSwUkT1RsxkQKBgQCtdTc6YZHpt5uo9MWr\n0oBA7a0JW5vyXI/9FzQTcOZLPpgvan6rxwwFLigfAbnVdouishPZkpwzQdPss3U+\n0oSbPSijeqXsmR2ctKJBf/77wlbP+KXF8FRWf4NxoRZ8ti0si2qcTWXZd9Euh8n0\naui2xaNRn2TmC3gLYoStRZSK4w==\n-----END PRIVATE KEY-----\n",
  "client_email": "media-318@mykineto.iam.gserviceaccount.com",
  "client_id": "118316979674634948134",
  "auth_uri": "https://accounts.google.com/o/oauth2/auth",
  "token_uri": "https://accounts.google.com/o/oauth2/token",
  "auth_provider_x509_cert_url": "https://www.googleapis.com/oauth2/v1/certs",
  "client_x509_cert_url": "https://www.googleapis.com/robot/v1/metadata/x509/media-318%40mykineto.iam.gserviceaccount.com"
}
